…
```{r}
tab <- table(tokens[[1]])
tab <- data_frame(word = names(tab), count = as.numeric(tab))
tab
```

If you are new to R, or programming in general, take note that you do not need to fully
understand every minute detail of a code snippet in order to understand what the code
is ultimately trying to do. The output from this command should look like this in your
console:

```
# A tibble: 71 × 2
         word count
        <chr> <dbl>
1           a     1
2       abuse     2
3     achieve     1
4       again     1
5          an     1
6         and     4
7  appreciate     1
8    approach     1
9         are     2
10         at     1
# ... with 61 more rows
```
…
