…
This packages contains samples of historical datasets. Specifically, we
are going to work with the early\_colleges dataset that contains
information about colleges founded before 1848. Lets load the data and
view it:

```r
    > data(early_colleges)
    > early_colleges

    ## # A tibble: 65 × 6
    ##                   college         original_name          city state
    ##                     <chr>                 <chr>         <chr> <chr>
    ## 1                 Harvard                  <NA>     Cambridge    MA
    ## 2        William and Mary                  <NA>  Williamsburg    VA
    ## 3                    Yale                  <NA>     New Haven    CT
    ## 4  Pennsylvania, Univ. of                  <NA>  Philadelphia    PA
    ## 5               Princeton College of New Jersey     Princeton    NJ
    ## 6                Columbia        King's College      New York    NY
    ## 7                   Brown                  <NA>    Providence    RI
    ## 8                 Rutgers       Queen's College New Brunswick    NJ
    ## 9               Dartmouth                  <NA>       Hanover    NH
    ## 10   Charleston, Coll. Of                  <NA>    Charleston    SC
    ## # ... with 55 more rows, and 2 more variables: established <int>,
    ## #   sponsorship <chr>
```
…
If you guessed the sponsorship of Harvard, you are correct. In addition
to noting the original sponsorship, it also mentions that it changed
sponsorship in 1805. Usually, you want to keep as much information about
your data that you can, but for the purposes of this tutorial, we are
going to change the column to only have the original sponsorship:

```r
    > early_colleges[1,6] <- "Congregational"
    > early_colleges

    ## # A tibble: 65 × 6
    ##                   college         original_name          city state
    ##                     <chr>                 <chr>         <chr> <chr>
    ## 1                 Harvard                  <NA>     Cambridge    MA
    ## 2        William and Mary                  <NA>  Williamsburg    VA
    ## 3                    Yale                  <NA>     New Haven    CT
    ## 4  Pennsylvania, Univ. of                  <NA>  Philadelphia    PA
    ## 5               Princeton College of New Jersey     Princeton    NJ
    ## 6                Columbia        King's College      New York    NY
    ## 7                   Brown                  <NA>    Providence    RI
    ## 8                 Rutgers       Queen's College New Brunswick    NJ
    ## 9               Dartmouth                  <NA>       Hanover    NH
    ## 10   Charleston, Coll. Of                  <NA>    Charleston    SC
    ## # ... with 55 more rows, and 2 more variables: established <int>,
    ## #   sponsorship <chr>
```
…
If we look at the early\_colleges data, we can see that there are a lot
of NA's in the original names column. NA signifies that the data is not
available, and we may want to view our data with this column removed.
Dplyr's select() function allows us to this. It takes the data frame you
want to manipulate as the first argument and a list signifying what
columns you would like to keep:

```r
    # Remove the original names column using select()
    # Note that you do not have to append the column name with a $ to the end of early_colleges since  
    # dplyr automatically assumes that a "," represents AND 

    > select(early_colleges, college, city, state, established, sponsorship)

    ## # A tibble: 65 × 5
    ##                   college          city state established
    ##                     <chr>         <chr> <chr>       <int>
    ## 1                 Harvard     Cambridge    MA        1636
    ## 2        William and Mary  Williamsburg    VA        1693
    ## 3                    Yale     New Haven    CT        1701
    ## 4  Pennsylvania, Univ. of  Philadelphia    PA        1740
    ## 5               Princeton     Princeton    NJ        1746
    ## 6                Columbia      New York    NY        1754
    ## 7                   Brown    Providence    RI        1765
    ## 8                 Rutgers New Brunswick    NJ        1766
    ## 9               Dartmouth       Hanover    NH        1769
    ## 10   Charleston, Coll. Of    Charleston    SC        1770
    ## # ... with 55 more rows, and 1 more variables: sponsorship <chr>
```

Lets also go ahead and see how to write this using the pipe operator
(%&gt;%):

```r
    > early_colleges%>%
        select(college, city, state, established, sponsorship)

    ## # A tibble: 65 × 5
    ##                   college          city state established
    ##                     <chr>         <chr> <chr>       <int>
    ## 1                 Harvard     Cambridge    MA        1636
    ## 2        William and Mary  Williamsburg    VA        1693
    ## 3                    Yale     New Haven    CT        1701
    ## 4  Pennsylvania, Univ. of  Philadelphia    PA        1740
    ## 5               Princeton     Princeton    NJ        1746
    ## 6                Columbia      New York    NY        1754
    ## 7                   Brown    Providence    RI        1765
    ## 8                 Rutgers New Brunswick    NJ        1766
    ## 9               Dartmouth       Hanover    NH        1769
    ## 10   Charleston, Coll. Of    Charleston    SC        1770
    ## # ... with 55 more rows, and 1 more variables: sponsorship <chr>
```

Referencing each of the columns that we want to keep just to get rid of
one is a little tedous. We can use the minus symbol(-) to demonstrate
that we want to remove a column.

```r
    > early_colleges%>%
        select(-original_name)

    ## # A tibble: 65 × 5
    ##                   college          city state established
    ##                     <chr>         <chr> <chr>       <int>
    ## 1                 Harvard     Cambridge    MA        1636
    ## 2        William and Mary  Williamsburg    VA        1693
    ## 3                    Yale     New Haven    CT        1701
    ## 4  Pennsylvania, Univ. of  Philadelphia    PA        1740
    ## 5               Princeton     Princeton    NJ        1746
    ## 6                Columbia      New York    NY        1754
    ## 7                   Brown    Providence    RI        1765
    ## 8                 Rutgers New Brunswick    NJ        1766
    ## 9               Dartmouth       Hanover    NH        1769
    ## 10   Charleston, Coll. Of    Charleston    SC        1770
    ## # ... with 55 more rows, and 1 more variables: sponsorship <chr>
```
…
### Mutate

The mutate command allows you to add a column to your data frame. Right
now, we have the city and state in two separate columns. We can use the
paste command to combine two strings and specify a seperator. Lets place
them in a single column called "location":

```r
    > early_colleges%>%mutate(location=paste(city,state,sep=","))

    ## # A tibble: 65 × 7
    ##                   college         original_name          city state
    ##                     <chr>                 <chr>         <chr> <chr>
    ## 1                 Harvard                  <NA>     Cambridge    MA
    ## 2        William and Mary                  <NA>  Williamsburg    VA
    ## 3                    Yale                  <NA>     New Haven    CT
    ## 4  Pennsylvania, Univ. of                  <NA>  Philadelphia    PA
    ## 5               Princeton College of New Jersey     Princeton    NJ
    ## 6                Columbia        King's College      New York    NY
    ## 7                   Brown                  <NA>    Providence    RI
    ## 8                 Rutgers       Queen's College New Brunswick    NJ
    ## 9               Dartmouth                  <NA>       Hanover    NH
    ## 10   Charleston, Coll. Of                  <NA>    Charleston    SC
    ## # ... with 55 more rows, and 3 more variables: established <int>,
    ## #   sponsorship <chr>, location <chr>
```

Again, you need to remember that dplyr does not save the data or
manipulate the original. Instead, it creates a temporary data frame at
each step. If you want to keep it, you need to create a permanent
variable:

```r
    > early_colleges_with_location <- early_colleges%>%
        mutate(location=paste(city, state, sep=","))
        
    # View the new tibble with the location added 
    > early_colleges_with_location

    ## # A tibble: 65 × 7
    ##                   college         original_name          city state
    ##                     <chr>                 <chr>         <chr> <chr>
    ## 1                 Harvard                  <NA>     Cambridge    MA
    ## 2        William and Mary                  <NA>  Williamsburg    VA
    ## 3                    Yale                  <NA>     New Haven    CT
    ## 4  Pennsylvania, Univ. of                  <NA>  Philadelphia    PA
    ## 5               Princeton College of New Jersey     Princeton    NJ
    ## 6                Columbia        King's College      New York    NY
    ## 7                   Brown                  <NA>    Providence    RI
    ## 8                 Rutgers       Queen's College New Brunswick    NJ
    ## 9               Dartmouth                  <NA>       Hanover    NH
    ## 10   Charleston, Coll. Of                  <NA>    Charleston    SC
    ## # ... with 55 more rows, and 3 more variables: established <int>,
    ## #   sponsorship <chr>, location <chr>
```

### Arrange

The arrange() function allows us to order our columns in a new way.
Currently, the colleges are organized by year in ascending order. Lets
place them in descending order of establishment from the Civil War:

```r
    > early_colleges %>% 
        arrange(desc(established))

    ## # A tibble: 65 × 6
    ##                  college original_name        city state established
    ##                    <chr>         <chr>       <chr> <chr>       <int>
    ## 1    Wisconsin, Univ. of          <NA>     Madison    WI        1848
    ## 2                Earlham          <NA>    Richmond    IN        1847
    ## 3                 Beloit          <NA>      Beloit    WI        1846
    ## 4               Bucknell          <NA>   Lewisburg    PA        1846
    ## 5               Grinnell          <NA>    Grinnell    IA        1846
    ## 6            Mount Union          <NA>    Alliance    OH        1846
    ## 7    Louisiana, Univ. of          <NA> New Orleans    LA        1845
    ## 8     U.S. Naval Academy          <NA>   Annapolis    MD        1845
    ## 9  Mississipps, Univ. of          <NA>      Oxford    MI        1844
    ## 10            Holy Cross          <NA>  Worchester    MA        1843
    ## # ... with 55 more rows, and 1 more variables: sponsorship <chr>
```
…
