…
    vetor_populacao_permanente

    ## [1] 6328339

Agora que aprendemos a usar o operador pipe, estamos prontos para começarmos a analisar e manipular dados. Ao longo deste tutorial, vamos continuar trabalhando com os dados do [Gapminder](https://www.gapminder.org/), contendo informações dos avanços dos indicadores socioeconômicos, ao longo dos anos, de vários países. Vamos olhar mais uma vez nossos dados:

    # Certifique-se que o pacote "dados" está instalado e carregado antes de importar a base de dados

    dados_gapminder

    ## # A tibble: 1,704 x 6
    ##    pais        continente   ano expectativa_de_vida populacao pib_per_capita
    ##    <fct>       <fct>      <int>               <dbl>     <int>          <dbl>
    ##  1 Afeganistão Ásia        1952                28.8   8425333           779.
    ##  2 Afeganistão Ásia        1957                30.3   9240934           821.
    ##  3 Afeganistão Ásia        1962                32.0  10267083           853.
    ##  4 Afeganistão Ásia        1967                34.0  11537966           836.
    ##  5 Afeganistão Ásia        1972                36.1  13079460           740.
    ##  6 Afeganistão Ásia        1977                38.4  14880372           786.
    ##  7 Afeganistão Ásia        1982                39.9  12881816           978.
    ##  8 Afeganistão Ásia        1987                40.8  13867957           852.
    ##  9 Afeganistão Ásia        1992                41.7  16317921           649.
    ## 10 Afeganistão Ásia        1997                41.8  22227415           635.
    ## # … with 1,694 more rows
…
[Dplyr](https://cran.rstudio.com/web/packages/dplyr/vignettes/introduction.html) é outro pacote presente no tidyverse, que fornece ferramentas para manipulação e tranformação de bases de dados "tidy". Uma vez que nossos dados já estão organizados, precisaremos apenas de uma pequena parte dessas ferramentas para explorar suas informações. Em comparação com o pacote básico do R, usando o dplyr, nosso código é geralmente mais rápido e há a certeza de produzir  sempre resultados também em formato tidy, uma vez que nossos dados de entrada também estavam organizados assim. Especialmente, o dplyr torna nosso código mais legível e utiliza "verbos" que são, no geral, intuitivos. Cada função do dplyr corresponde a um desses verbos, sendo cinco principais: filter, select, arrange, mutate e summarise (filtrar, selecionar, organizar, modificar e sumarizar). Vamos observar individualmente como cada um desses verbos funciona na prática.


### Select

Se olharmos para o banco de dados "dados_gapminder", vamos observar a presença de seis colunas, contendo diferentes informações. Podemos escolher, durante nossa análise, visualizar apenas algumas dessas colunas. A função select() do dplyr nos permite fazer isso. O primeiro argumento da função é sempre a base de dados que desejamos manipular e, em seguida, listamos os nomes das colunas que queremos manter na base de dados:

    # Remove as colunas da base original usando select()
    # Observe que você não precisa utilizar o $ ao fim do dados_gapminder para se referir ao nome da coluna
    # O dplyr automaticamente assume que a "," representa E

    select(dados_gapminder, pais, ano, expectativa_de_vida)

    ## # A tibble: 1,704 x 3
    ##    pais          ano expectativa_de_vida
    ##    <fct>       <int>               <dbl>
    ##  1 Afeganistão  1952                28.8
    ##  2 Afeganistão  1957                30.3
    ##  3 Afeganistão  1962                32.0
    ##  4 Afeganistão  1967                34.0
    ##  5 Afeganistão  1972                36.1
    ##  6 Afeganistão  1977                38.4
    ##  7 Afeganistão  1982                39.9
    ##  8 Afeganistão  1987                40.8
    ##  9 Afeganistão  1992                41.7
    ## 10 Afeganistão  1997                41.8
    ## # … with 1,694 more rows

Vamos seguir e ver como escrevemos o mesmo código utilizando o operador pipe (%&gt;%):

    dados_gapminder %>%
      select(pais, ano, expectativa_de_vida)

    ## # A tibble: 1,704 x 3
    ##    pais          ano expectativa_de_vida
    ##    <fct>       <int>               <dbl>
    ##  1 Afeganistão  1952                28.8
    ##  2 Afeganistão  1957                30.3
    ##  3 Afeganistão  1962                32.0
    ##  4 Afeganistão  1967                34.0
    ##  5 Afeganistão  1972                36.1
    ##  6 Afeganistão  1977                38.4
    ##  7 Afeganistão  1982                39.9
    ##  8 Afeganistão  1987                40.8
    ##  9 Afeganistão  1992                41.7
    ## 10 Afeganistão  1997                41.8
    ## # … with 1,694 more rows

Se referir a cada uma das colunas que desejamos manter, apenas para remover uma única coluna, não é muito eficiente. Pode utilizar, de outro modo, o símbolo de menos (-) para demonstrar que queremos remover uma coluna.

    dados_gapminder %>%
        select(-continente)

    ## # A tibble: 1,704 x 5
    ##    pais          ano expectativa_de_vida populacao pib_per_capita
    ##    <fct>       <int>               <dbl>     <int>          <dbl>
    ##  1 Afeganistão  1952                28.8   8425333           779.
    ##  2 Afeganistão  1957                30.3   9240934           821.
    ##  3 Afeganistão  1962                32.0  10267083           853.
    ##  4 Afeganistão  1967                34.0  11537966           836.
    ##  5 Afeganistão  1972                36.1  13079460           740.
    ##  6 Afeganistão  1977                38.4  14880372           786.
    ##  7 Afeganistão  1982                39.9  12881816           978.
    ##  8 Afeganistão  1987                40.8  13867957           852.
    ##  9 Afeganistão  1992                41.7  16317921           649.
    ## 10 Afeganistão  1997                41.8  22227415           635.
    ## # … with 1,694 more rows

### Filter

A função filter() realiza a mesma tarefa da função select(), mas ao invés de selecionar o nome da coluna, o filter() seleciona linhas da base de dados utilizando requisitos lógicos. Por exemplo, se quisermos selecionar somente os registros dos países em 2007.

    dados_gapminder %>%
        filter(ano == 2007)

    ## # A tibble: 142 x 6
    ##    pais        continente   ano expectativa_de_vida populacao pib_per_capita
    ##    <fct>       <fct>      <int>               <dbl>     <int>          <dbl>
    ##  1 Afeganistão Ásia        2007                43.8  31889923           975.
    ##  2 Albânia     Europa      2007                76.4   3600523          5937.
    ##  3 Argélia     África      2007                72.3  33333216          6223.
    ##  4 Angola      África      2007                42.7  12420476          4797.
    ##  5 Argentina   Américas    2007                75.3  40301927         12779.
    ##  6 Austrália   Oceania     2007                81.2  20434176         34435.
    ##  7 Áustria     Europa      2007                79.8   8199783         36126.
    ##  8 Bahrein     Ásia        2007                75.6    708573         29796.
    ##  9 Bangladesh  Ásia        2007                64.1 150448339          1391.
    ## 10 Bélgica     Europa      2007                79.4  10392226         33693.
    ## # … with 132 more rows

### Mutate

O comando mutate te permite adicionar colunas ao seu dataset ou alterar colunas já existentes. No momento, temos país e continente em duas colunas separadas. Podemos utilizar o comando paste() para combinar os dois textos, especificando um separador. Vamos agrupar as informações em uma única coluna chamada "localizacao".

    dados_gapminder %>%
      mutate(localizacao = paste(pais, continente, sep = ", "))

    ## # A tibble: 1,704 x 7
    ## pais        continente   ano expectativa_de_vida populacao pib_per_capita localizacao      
    ## <fct>       <fct>      <int>               <dbl>     <int>          <dbl> <chr>            
    ## 1 Afeganistão Ásia        1952                28.8   8425333           779. Afeganistão, Ásia
    ## 2 Afeganistão Ásia        1957                30.3   9240934           821. Afeganistão, Ásia
    ## 3 Afeganistão Ásia        1962                32.0  10267083           853. Afeganistão, Ásia
    ## 4 Afeganistão Ásia        1967                34.0  11537966           836. Afeganistão, Ásia
    ## 5 Afeganistão Ásia        1972                36.1  13079460           740. Afeganistão, Ásia
    ## 6 Afeganistão Ásia        1977                38.4  14880372           786. Afeganistão, Ásia
    ## 7 Afeganistão Ásia        1982                39.9  12881816           978. Afeganistão, Ásia
    ## 8 Afeganistão Ásia        1987                40.8  13867957           852. Afeganistão, Ásia
    ## 9 Afeganistão Ásia        1992                41.7  16317921           649. Afeganistão, Ásia
    ## 10 Afeganistão Ásia        1997                41.8  22227415           635. Afeganistão, Ásia
    ## # … with 1,694 more rows

Novamente, você precisa lembrar que o dplyr não salva os dados, nem transforma o original. Na verdade, ele cria uma base de dados temporária em cada etapa. Se você deseja manter o resultado, é necessário criar uma variável permanente.

    dados_gapminder_localizacao <- dados_gapminder %>%
      mutate(localizacao = paste(pais, continente, sep = ", "))

    # Visualiza o novo tibble criado com a localização adicionada
    dados_gapminder_localizacao

    ## # A tibble: 1,704 x 7
    ## pais        continente   ano expectativa_de_vida populacao pib_per_capita localizacao      
    ## <fct>       <fct>      <int>               <dbl>     <int>          <dbl> <chr>            
    ## 1 Afeganistão Ásia        1952                28.8   8425333           779. Afeganistão, Ásia
    ## 2 Afeganistão Ásia        1957                30.3   9240934           821. Afeganistão, Ásia
    ## 3 Afeganistão Ásia        1962                32.0  10267083           853. Afeganistão, Ásia
    ## 4 Afeganistão Ásia        1967                34.0  11537966           836. Afeganistão, Ásia
    ## 5 Afeganistão Ásia        1972                36.1  13079460           740. Afeganistão, Ásia
    ## 6 Afeganistão Ásia        1977                38.4  14880372           786. Afeganistão, Ásia
    ## 7 Afeganistão Ásia        1982                39.9  12881816           978. Afeganistão, Ásia
    ## 8 Afeganistão Ásia        1987                40.8  13867957           852. Afeganistão, Ásia
    ## 9 Afeganistão Ásia        1992                41.7  16317921           649. Afeganistão, Ásia
    ## 10 Afeganistão Ásia        1997                41.8  22227415           635. Afeganistão, Ásia
    ## # … with 1,694 more rows

### Arrange

A função arrange nos permite ordenar nossas colunas de novas formas. Atualmente, em nossa base de dados, os países estão organizados em ordem alfabética. Vamos ordená-los em ordem decrescente de acordo com o total da população.

    dados_gapminder %>%
      arrange(desc(populacao))

    ## # A tibble: 1,704 x 6
    ##    pais  continente   ano expectativa_de_vida  populacao pib_per_capita
    ##    <fct> <fct>      <int>               <dbl>      <int>          <dbl>
    ##  1 China Ásia        2007                73.0 1318683096          4959.
    ##  2 China Ásia        2002                72.0 1280400000          3119.
    ##  3 China Ásia        1997                70.4 1230075000          2289.
    ##  4 China Ásia        1992                68.7 1164970000          1656.
    ##  5 Índia Ásia        2007                64.7 1110396331          2452.
    ##  6 China Ásia        1987                67.3 1084035000          1379.
    ##  7 Índia Ásia        2002                62.9 1034172547          1747.
    ##  8 China Ásia        1982                65.5 1000281000           962.
    ##  9 Índia Ásia        1997                61.8  959000000          1459.
    ## 10 China Ásia        1977                64.0  943455000           741.
    ## # … with 1,694 more rows
…
