…
## Loading Data with readr

Common spreadsheet applications, such as Microsoft Excel or Apple Numbers, place data in a proprietary format. While there are R packages that read Excel data, such as [readxl](https://readxl.tidyverse.org/), we recommend using open formats, such as CSV (comma-separated values) or TSV (tab-separated values) when possible. This is the format we have placed our data in. Download it and place it in the working directory of your project. R has built in commands for reading CSV and TSV files. However, we will use the [readr](https://readr.tidyverse.org/) package, which we already loaded when we called the tidyverse. This reads data into a tibble format rather than a data frame.

Tibbles are essential to the tidyverse and function similarly to data frames, but they make small decisions about how to import and display data. R is a relatively old language, and as a result, defaults that made sense during the original implementation are less helpful now. Unlike data frames, they do not treat strings as factors, convert input type, or create row names. You can learn more about [tibbles here](https://r4ds.had.co.nz/tibbles.html). If you do not have a background in R, the difference between tibbles and data frames may not make a lot of sense. Don’t worry! In most cases, you can treat tibbles exactly like data frames and easily switch between the two. To convert your tibble to a data frame, use the `as.data.frame()` function with the name of the tibble as the parameter. Likewise, to convert a data frame to a tibble, use the `as_tibble()` function.

We will use readr’s [read_csv()](https://readr.tidyverse.org/reference/read_delim.html) function to load our data. This function takes either a file path or URL as its argument and converts the file to a tibble.

```R
eudata<-read_csv("sistercities.csv")
eudata
```
    ## # A tibble: 13,081 × 12
    ##    origincityLabel origincountry originlat originlong originpopulation
    ##    <chr>           <chr>             <dbl>      <dbl>            <dbl>
    ##  1 Veliko Tarnovo  Bulgaria           43.1       25.6            71150
    ##  2 Pernik          Bulgaria           42.6       23.0            75191
    ##  3 Veliko Tarnovo  Bulgaria           43.1       25.6            71150
    ##  4 Obzor           Bulgaria           42.8       27.9             2125
    ##  5 Obzor           Bulgaria           42.8       27.9             2125
    ##  6 Balchik         Bulgaria           43.4       28.2            12913
    ##  7 Tryavna         Bulgaria           42.9       25.5             9831
    ##  8 Troyan          Bulgaria           42.9       24.7            22022
    ##  9 Sofia           Bulgaria           42.7       23.3          1286383
    ## 10 Dimitrovgrad    Bulgaria           42.1       25.6            38217
    ## # … with 13,071 more rows, and 7 more variables: sistercityLabel <chr>,
    ## #   destinationlat <dbl>, destinationlong <dbl>, destinationpopulation <dbl>,
    ## #   destination_countryLabel <chr>, dist <dbl>, eu <chr>
…
